[
  {
    "id": 1,
    "name": "andrewo",
    "dob": "1999-12-20",
    "email": "andrew@foo.com",
    "password": "$2a$10$DRg9kOnM4PC3sI2WndgT.OtgiIoDsDygQwi8bI5oCBA82gxoToc3e"
  },
  {
    "id": 2,
    "name": "billo",
    "dob": "1946-12-04",
    "email": "bill@foo.com",
    "password": "$2a$10$DRg9kOnM4PC3sI2WndgT.OtgiIoDsDygQwi8bI5oCBA82gxoToc3e"
  }
]
